[
	{
		"name": "dfg",
		"dob": "2001-01-01",
		"mail": "dfg@gmail.com",
		"course": [
			{
				"name": "bcd"
			},
			{
				"name": "egf"
			}
		]
	},
	{
		"name": "asd",
		"dob": "2001-01-01",
		"mail": "asd@gmail.com",
		"course": [
			{
				"name": "bcd"
			},
			{
				"name": "egf"
			},
			{
				"name": "sds"
			}
		]
	}
]